{
   "data" : {
      "projects" : [ {
         "creationDate" : "2021-06-22T15:11:23.868+03:00",
         "dateBegin" : "2021-06-22T00:00:00+03:00",
         "dateEnd" : "2021-06-23T00:00:00+03:00",
         "description" : "testproject",
         "displayName" : "PENDING",
         "id" : "24d29211-efef-4ffc-8075-d613614fbd17",
         "name" : "lolproject",
         "userId" : "1e4ca947-0034-4a0b-974a-7cf4a124983f"
      }, {
         "creationDate" : "2021-06-24T12:03:25.715+03:00",
         "dateBegin" : "0005-05-07T00:00:00+03:00",
         "dateEnd" : "0005-05-07T00:00:00+03:00",
         "description" : "5",
         "displayName" : "PENDING",
         "id" : "5bb6218f-c5b5-4fd2-ba9d-529d92bff11e",
         "name" : "lol2",
         "userId" : "1e4ca947-0034-4a0b-974a-7cf4a124983f"
      } ],
      "tasks" : [ {
         "creationDate" : "2021-06-22T15:11:54.23+03:00",
         "dateBegin" : "2021-06-22T00:00:00+03:00",
         "dateEnd" : "2021-06-23T00:00:00+03:00",
         "description" : "testtask",
         "displayName" : "PENDING",
         "id" : "a76795fb-8ae9-424c-a251-fe9e633611c4",
         "name" : "loltask",
         "projectID" : "24d29211-efef-4ffc-8075-d613614fbd17",
         "userId" : "1e4ca947-0034-4a0b-974a-7cf4a124983f"
      }, {
         "creationDate" : "2021-06-24T12:03:43.165+03:00",
         "dateBegin" : "0005-05-07T00:00:00+03:00",
         "dateEnd" : "0005-05-07T00:00:00+03:00",
         "description" : "5",
         "displayName" : "PENDING",
         "id" : "531298ab-ccff-4622-9f86-4833ccf2f46a",
         "name" : "loltask2",
         "projectID" : "5bb6218f-c5b5-4fd2-ba9d-529d92bff11e",
         "userId" : "1e4ca947-0034-4a0b-974a-7cf4a124983f"
      } ],
      "users" : [ {
         "name" : "lol",
         "password" : "9cdfb439c7876e703e307864c9167a15",
         "userId" : "1e4ca947-0034-4a0b-974a-7cf4a124983f",
         "userRoleType" : "USER"
      } ]
   }
}